<svg xmlns="http://www.w3.org/2000/svg" width="36" height="36" viewBox="0 0 36 36">
  <g id="Group_8789" data-name="Group 8789" transform="translate(-15419 -2124)">
    <g id="Rectangle_18061" data-name="Rectangle 18061" transform="translate(15419 2124)" fill="rgba(244,244,230,0)" stroke="#a2a399" stroke-width="1">
      <rect width="36" height="36" rx="3" stroke="none"/>
      <rect x="0.5" y="0.5" width="35" height="35" rx="2.5" fill="none"/>
    </g>
    <g id="Group_8788" data-name="Group 8788" transform="translate(14123 2049)">
      <path id="Path_10617" data-name="Path 10617" d="M12.923,9.032a9.148,9.148,0,0,0-1.058-.425,4.781,4.781,0,1,0-5.725,0A9.145,9.145,0,0,0,.046,15.424,2.136,2.136,0,0,0,2.134,18h8.659a.7.7,0,1,0,0-1.406H2.134a.714.714,0,0,1-.562-.267.735.735,0,0,1-.149-.616A7.768,7.768,0,0,1,8.814,9.559q.093,0,.186,0t.188,0a7.659,7.659,0,0,1,3.13.743.7.7,0,0,0,.6-1.27Zm-3.751-.88L9,8.15l-.17,0a3.375,3.375,0,1,1,.342,0Z" transform="translate(1305 84)" fill="#815739"/>
      <path id="Path_10618" data-name="Path 10618" d="M327.977,324.637h-1.934V322.7a.7.7,0,0,0-1.406,0v1.934H322.7a.7.7,0,0,0,0,1.406h1.934v1.934a.7.7,0,0,0,1.406,0v-1.934h1.934a.7.7,0,0,0,0-1.406Z" transform="translate(994.321 -226.68)" fill="#815739"/>
    </g>
  </g>
</svg>
