<svg xmlns="http://www.w3.org/2000/svg" width="25" height="25" viewBox="0 0 25 25">
  <g id="Batch_Assignment_active" data-name="Batch Assignment_active" transform="translate(-6520 891)">
    <g id="Group_10025" data-name="Group 10025" transform="translate(6520 -878.988)">
      <path id="Path_10852" data-name="Path 10852" d="M22.332,253.912a2.236,2.236,0,0,0,.426-1.316v-2.934a.488.488,0,0,0-.488-.488H20.087a1.832,1.832,0,0,0-1.83,1.83V252.6a2.237,2.237,0,0,0,.426,1.315,3.142,3.142,0,0,0-.955.318,4.154,4.154,0,0,0-3.067-1.828l-.015,0a2.87,2.87,0,0,0,.735-1.921v-3.988a.488.488,0,0,0-.488-.488H11.929a2.314,2.314,0,0,0-2.311,2.311v2.165a2.873,2.873,0,0,0,.735,1.921l-.015,0a4.153,4.153,0,0,0-3.067,1.829,3.155,3.155,0,0,0-.955-.318,2.237,2.237,0,0,0,.426-1.315v-2.935a.488.488,0,0,0-.488-.488H4.072A1.832,1.832,0,0,0,2.242,251V252.6a2.237,2.237,0,0,0,.427,1.316A3.188,3.188,0,0,0,0,257.054V258.5a.488.488,0,0,0,.488.488H24.512A.488.488,0,0,0,25,258.5v-1.446A3.188,3.188,0,0,0,22.332,253.912ZM3.219,251a.854.854,0,0,1,.853-.853H5.766v.595a.53.53,0,0,1-.529.529H3.219Zm0,1.247H5.237a1.5,1.5,0,0,0,.529-.1v.442a1.273,1.273,0,0,1-2.547,0Zm1.588,2.6-.315.315-.315-.315Zm1.763,1.688v1.478H.977v-.958a2.21,2.21,0,0,1,1.849-2.178L4.147,256.2a.488.488,0,0,0,.69,0l1.321-1.322a2.189,2.189,0,0,1,.667.223A4.14,4.14,0,0,0,6.57,256.534Zm5.93-4.152a1.909,1.909,0,0,1-1.906-1.906v-.646h2.918a1.855,1.855,0,0,0,.894-.228v.873A1.908,1.908,0,0,1,12.5,252.382Zm.851.977-.851.851-.851-.851Zm-2.757-5.048h0a1.336,1.336,0,0,1,1.334-1.334h2.478v.983a.9.9,0,0,1-.894.894H10.594v-.543Zm6.86,9.7H7.546v-.977h3.179a.488.488,0,0,0,0-.977H7.582a3.183,3.183,0,0,1,2.715-2.671l1.858,1.858a.488.488,0,0,0,.69,0l1.858-1.858a3.179,3.179,0,0,1,2.75,3.146v1.478ZM19.234,251a.854.854,0,0,1,.853-.853h1.694v.595a.53.53,0,0,1-.529.529H19.234V251Zm0,1.247h2.018a1.5,1.5,0,0,0,.529-.1v.442a1.273,1.273,0,0,1-2.547,0v-.346Zm1.588,2.6-.315.315-.315-.315Zm-2.393,3.166v-1.478a4.142,4.142,0,0,0-.256-1.436,2.163,2.163,0,0,1,.667-.223l1.322,1.322a.488.488,0,0,0,.69,0l1.321-1.321a2.211,2.211,0,0,1,1.849,2.178v.958Z" transform="translate(0 -246)" fill="#fff"/>
    </g>
    <g id="Group_10030" data-name="Group 10030" transform="translate(6529.951 -887.952)">
      <path id="Path_10853" data-name="Path 10853" d="M208.75,62.558a.489.489,0,0,0-.69,0l-2.4,2.4-1.036-1.036a.488.488,0,0,0-.69.69l1.381,1.381a.488.488,0,0,0,.69,0l2.741-2.741A.488.488,0,0,0,208.75,62.558Z" transform="translate(-203.795 -62.415)" fill="#fff"/>
    </g>
    <g id="Group_10031" data-name="Group 10031" transform="translate(6527.594 -890.619)">
      <path id="Path_10854" data-name="Path 10854" d="M162.423,7.843a.488.488,0,0,0-.4.892,3.929,3.929,0,1,1-3.214.007.488.488,0,0,0-.4-.89,4.906,4.906,0,1,0,4.014-.009Z" transform="translate(-155.52 -7.801)" fill="#fff"/>
    </g>
    <g id="Group_10038" data-name="Group 10038" transform="translate(6532.012 -891)">
      <path id="Path_10855" data-name="Path 10855" d="M246.506,0h-.018a.488.488,0,0,0,0,.977h.015a.488.488,0,0,0,0-.977Z" transform="translate(-246)" fill="#fff"/>
    </g>
    <g id="Group_10039" data-name="Group 10039" transform="translate(6532.012 -868.93)">
      <path id="Path_10856" data-name="Path 10856" d="M246.833,452.143a.488.488,0,1,0,.143.345A.492.492,0,0,0,246.833,452.143Z" transform="translate(-246 -452)" fill="#fff"/>
    </g>
  </g>
</svg>
