<svg xmlns="http://www.w3.org/2000/svg" width="24" height="24" viewBox="0 0 24 24">
  <g id="Bid_Numbers_active" data-name="Bid Numbers_active" transform="translate(-6575 954.577)">
    <path id="Path_10969" data-name="Path 10969" d="M23.584,19.694a2.952,2.952,0,0,0-.565-.648l-2.19-1.91a.465.465,0,0,0-.187-.163l-1.325-1.155L13.187,10.47a1.4,1.4,0,0,0-.412-2.239l.567-.567a1.876,1.876,0,0,0,1.81-.485,1.875,1.875,0,0,0,0-2.652L11.175.55A1.874,1.874,0,0,0,8.039,2.36L2.38,8.019a1.886,1.886,0,0,0-.485-.064,1.875,1.875,0,0,0-1.326,3.2l3.977,3.977a1.874,1.874,0,0,0,3.136-1.81l.566-.566a1.407,1.407,0,0,0,2.24.411l6.53,7.5a.471.471,0,0,0,.064.079l.026.024,1.946,2.236c.048.057.1.113.154.167A2.788,2.788,0,0,0,21.189,24a2.877,2.877,0,0,0,.395-.027,2.836,2.836,0,0,0,2.093-1.449A2.774,2.774,0,0,0,23.584,19.694ZM9.187,1.213a.937.937,0,0,1,1.326,0L14.49,5.19a.937.937,0,0,1-1.325,1.326L9.187,2.539h0A.938.938,0,0,1,9.187,1.213ZM6.535,14.471a.939.939,0,0,1-1.326,0L1.232,10.494A.937.937,0,0,1,2.557,9.167l3.978,3.978A.938.938,0,0,1,6.535,14.471Zm1.974-3.3L7.2,12.482,3.221,8.5l5.3-5.3L12.5,7.179,11.188,8.492l-.013.012-2.65,2.65Zm1.674.978,0,0-.33.33a.469.469,0,0,1-.669-.657l2.663-2.663a.469.469,0,0,1,.8.337.464.464,0,0,1-.137.331l-.328.328-.007.007Zm.971.355,1.37-1.37,5.8,5.059-2.117,2.117Zm5.671,6.515,2.208-2.208.708.618-2.3,2.3Zm6.034,3.047a1.907,1.907,0,0,1-1.4.978,1.862,1.862,0,0,1-1.585-.531c-.036-.036-.071-.074-.1-.112l0-.005-1.705-1.959,2.39-2.39,1.957,1.707,0,0a2.018,2.018,0,0,1,.387.445A1.851,1.851,0,0,1,22.858,22.067Z" transform="translate(6574.98 -954.578)" fill="#484848"/>
    <path id="Path_10970" data-name="Path 10970" d="M101.5,171.557a.469.469,0,1,0,0,.663A.469.469,0,0,0,101.5,171.557Z" transform="translate(6479.016 -1117.962)" fill="#484848"/>
    <path id="Path_10971" data-name="Path 10971" d="M131.774,100.845a.469.469,0,0,0-.663,0l-1.989,1.989a.469.469,0,1,0,.663.663l1.989-1.989A.469.469,0,0,0,131.774,100.845Z" transform="translate(6452.061 -1050.564)" fill="#484848"/>
    <path id="Path_10972" data-name="Path 10972" d="M11.869,394.6a1.641,1.641,0,0,0-1.322-2.612H2.578A1.639,1.639,0,0,0,1.257,394.6,2.346,2.346,0,0,0,0,396.674v.469a.469.469,0,0,0,.469.469H12.656a.469.469,0,0,0,.469-.469v-.469A2.345,2.345,0,0,0,11.869,394.6ZM2.081,393.13a.7.7,0,0,1,.5-.206h7.968a.7.7,0,1,1,0,1.406H2.578a.7.7,0,0,1-.5-1.2ZM.937,396.674a1.408,1.408,0,0,1,1.406-1.406h8.437a1.408,1.408,0,0,1,1.406,1.406Z" transform="translate(6575 -1328.19)" fill="#484848"/>
  </g>
</svg>
