<svg xmlns="http://www.w3.org/2000/svg" width="14.645" height="23.472" viewBox="0 0 14.645 23.472">
  <g id="bin" transform="translate(-0.085 0.001)">
    <path id="Path_10327" data-name="Path 10327" d="M53.041,193.173a.39.39,0,0,0-.328.444l1.639,10.927a.39.39,0,0,0,.386.333.424.424,0,0,0,.058,0,.39.39,0,0,0,.328-.444L53.485,193.5a.39.39,0,0,0-.444-.328Zm0,0" transform="translate(-50.056 -183.747)" fill="#ed1848"/>
    <path id="Path_10328" data-name="Path 10328" d="M198.788,193.173a.39.39,0,0,0-.444.328L196.7,204.428a.39.39,0,0,0,.328.444.423.423,0,0,0,.058,0,.39.39,0,0,0,.386-.333l1.639-10.927A.39.39,0,0,0,198.788,193.173Zm0,0" transform="translate(-187.024 -183.747)" fill="#ed1848"/>
    <path id="Path_10329" data-name="Path 10329" d="M141.9,193.168a.39.39,0,0,0-.39.39v10.927a.39.39,0,0,0,.781,0V193.558A.39.39,0,0,0,141.9,193.168Zm0,0" transform="translate(-134.528 -183.746)" fill="#ed1848"/>
    <path id="Path_10330" data-name="Path 10330" d="M14.61,7.736a3.517,3.517,0,0,0-2.484-4.3L9.633,2.766l.465-.7A1.171,1.171,0,0,0,9.425.286L8.5.039a1.171,1.171,0,0,0-1.472,1.2l.051.843L4.587,1.414A3.516,3.516,0,0,0,.286,3.9a.39.39,0,0,0,.276.478l10.1,2.705h-9.4A1.171,1.171,0,0,0,.1,8.425L2.106,21.81a1.939,1.939,0,0,0,1.929,1.66h6.678a1.94,1.94,0,0,0,1.93-1.662L14.65,8.424a1.165,1.165,0,0,0-.078-.608A.381.381,0,0,0,14.61,7.736ZM7.874,2.295l-.066-1.1a.39.39,0,0,1,.49-.4l.924.247a.39.39,0,0,1,.225.592l-.608.922ZM4.385,2.168l7.539,2.02A2.736,2.736,0,0,1,13.93,7.149L1.169,3.73A2.735,2.735,0,0,1,4.385,2.168ZM11.87,21.693a1.163,1.163,0,0,1-1.157,1H4.035a1.162,1.162,0,0,1-1.157-1L.87,8.308a.39.39,0,0,1,.385-.447H13.492a.39.39,0,0,1,.386.448Zm0,0" transform="translate(0 0)" fill="#ed1848"/>
  </g>
</svg>
