<svg id="calendar" xmlns="http://www.w3.org/2000/svg" width="16" height="16" viewBox="0 0 16 16">
  <path id="Path_3018" data-name="Path 3018" d="M14.667,1.5H12.5V.5a.5.5,0,0,0-1,0v1h-3V.5a.5.5,0,0,0-1,0v1h-3V.5a.5.5,0,0,0-1,0v1H1.334A1.333,1.333,0,0,0,0,2.833V14.667A1.333,1.333,0,0,0,1.334,16H14.667A1.333,1.333,0,0,0,16,14.667V2.833A1.333,1.333,0,0,0,14.667,1.5ZM15,14.667a.334.334,0,0,1-.333.333H1.334A.334.334,0,0,1,1,14.667V2.833A.334.334,0,0,1,1.334,2.5H3.5v1a.5.5,0,0,0,1,0v-1h3v1a.5.5,0,0,0,1,0v-1h3v1a.5.5,0,0,0,1,0v-1h2.167A.334.334,0,0,1,15,2.833Z" fill="#4d4f5c"/>
  <rect id="Rectangle_2218" data-name="Rectangle 2218" width="2" height="1.5" transform="translate(3.5 6)" fill="#4d4f5c"/>
  <rect id="Rectangle_2219" data-name="Rectangle 2219" width="2" height="1.5" transform="translate(3.5 8.5)" fill="#4d4f5c"/>
  <rect id="Rectangle_2220" data-name="Rectangle 2220" width="2" height="1.5" transform="translate(3.5 11)" fill="#4d4f5c"/>
  <rect id="Rectangle_2221" data-name="Rectangle 2221" width="2" height="1.5" transform="translate(7 11)" fill="#4d4f5c"/>
  <rect id="Rectangle_2222" data-name="Rectangle 2222" width="2" height="1.5" transform="translate(7 8.5)" fill="#4d4f5c"/>
  <rect id="Rectangle_2223" data-name="Rectangle 2223" width="2" height="1.5" transform="translate(7 6)" fill="#4d4f5c"/>
  <rect id="Rectangle_2224" data-name="Rectangle 2224" width="2" height="1.5" transform="translate(10.5 11)" fill="#4d4f5c"/>
  <rect id="Rectangle_2225" data-name="Rectangle 2225" width="2" height="1.5" transform="translate(10.5 8.5)" fill="#4d4f5c"/>
  <rect id="Rectangle_2226" data-name="Rectangle 2226" width="2" height="1.5" transform="translate(10.5 6)" fill="#4d4f5c"/>
</svg>
