<svg xmlns="http://www.w3.org/2000/svg" width="21.004" height="21" viewBox="0 0 21.004 21">
  <g id="Group_9119" data-name="Group 9119" transform="translate(-1354 -1985)">
    <g id="Group_9118" data-name="Group 9118" transform="translate(1354 1985)">
      <g id="Group_9115" data-name="Group 9115">
        <g id="Group_9114" data-name="Group 9114">
          <path id="Path_10788" data-name="Path 10788" d="M16.759,7.64A8.4,8.4,0,0,0,0,8.4a8.345,8.345,0,0,0,7.64,8.357l.063,0a.7.7,0,0,0,.06-1.4A7,7,0,0,1,8.4,1.4a6.95,6.95,0,0,1,6.962,6.363.718.718,0,0,0,.759.636A.7.7,0,0,0,16.759,7.64Z" fill="#484848"/>
        </g>
      </g>
      <g id="Group_9117" data-name="Group 9117" transform="translate(7.701 2.801)">
        <g id="Group_9116" data-name="Group 9116">
          <path id="Path_10789" data-name="Path 10789" d="M181.041,68.9H177.4V64.7a.7.7,0,1,0-1.4,0v4.9a.7.7,0,0,0,.7.7h4.341a.7.7,0,0,0,0-1.4Z" transform="translate(-176 -64)" fill="#484848"/>
        </g>
      </g>
    </g>
    <g id="Group_9111" data-name="Group 9111" transform="translate(1363.802 1994.802)">
      <g id="c142_x_1_">
        <path id="Path_10786" data-name="Path 10786" d="M5.6,0a5.6,5.6,0,1,0,5.6,5.6A5.6,5.6,0,0,0,5.6,0ZM8.006,7.117l-.893.889A20.062,20.062,0,0,0,5.6,6.492,20.751,20.751,0,0,0,4.081,8.006l-.893-.889A17.4,17.4,0,0,0,4.7,5.6,17.473,17.473,0,0,0,3.188,4.085l.893-.893S5.5,4.706,5.6,4.706,7.113,3.192,7.113,3.192l.893.893A20.062,20.062,0,0,0,6.492,5.6C6.492,5.7,8.006,7.117,8.006,7.117Z" fill="#ed1848"/>
      </g>
    </g>
  </g>
</svg>
