<svg xmlns="http://www.w3.org/2000/svg" width="269.35" height="237.061" viewBox="0 0 269.35 237.061">
  <g id="Group_8122" data-name="Group 8122" transform="translate(-789.283 -303.324)" opacity="0.56">
    <g id="Group_8113" data-name="Group 8113" transform="translate(869.341 303.324)">
      <path id="Path_10517" data-name="Path 10517" d="M1974.97,943.8a5.032,5.032,0,0,0-5.021,5.023v20.661a5.033,5.033,0,0,0,5.021,5.023h20.446l18.056,7.94.01.009a8.541,8.541,0,0,0,4.916.758,3.627,3.627,0,0,0,2.105-1.2,4.011,4.011,0,0,0,.83-2.6v-4.906h8.094a5.033,5.033,0,0,0,5.023-5.023.967.967,0,1,0-1.934,0,3.062,3.062,0,0,1-3.089,3.089h-9.062a.967.967,0,0,0-.967.968v5.872a2.026,2.026,0,0,1-.385,1.366,1.647,1.647,0,0,1-1,.537,7.177,7.177,0,0,1-3.761-.638l-18.243-8.022a.963.963,0,0,0-.39-.082H1974.97a3.06,3.06,0,0,1-3.088-3.089V948.83a3.061,3.061,0,0,1,3.088-3.089.967.967,0,0,0,.847-1.454A.984.984,0,0,0,1974.97,943.8Z" transform="translate(-1969.949 -943.802)" fill="#c4c5be"/>
      <path id="Path_10518" data-name="Path 10518" d="M2054.783,1015.235a4.643,4.643,0,1,1-4.643-4.643A4.642,4.642,0,0,1,2054.783,1015.235Z" transform="translate(-2034.407 -1000.787)" fill="#fff"/>
      <path id="Path_10519" data-name="Path 10519" d="M2156.732,1015.235a4.643,4.643,0,1,1-4.642-4.643A4.644,4.644,0,0,1,2156.732,1015.235Z" transform="translate(-2121.39 -1000.787)" fill="#ffeea4"/>
      <path id="Path_10520" data-name="Path 10520" d="M2258.682,1015.235a4.642,4.642,0,1,1-1.36-3.283A4.642,4.642,0,0,1,2258.682,1015.235Z" transform="translate(-2208.375 -1000.787)" fill="#ffeea4"/>
    </g>
    <path id="Path_10521" data-name="Path 10521" d="M2043.8,1004.068a5.609,5.609,0,1,0,6.34,5.56.967.967,0,1,0-1.933,0,3.675,3.675,0,1,1-1.838-3.185.967.967,0,1,0,.966-1.674A5.6,5.6,0,0,0,2043.8,1004.068Z" transform="translate(-1159.458 -691.855)" fill="#c4c5be"/>
    <g id="Group_8120" data-name="Group 8120" transform="translate(921.673 417.76)">
      <g id="Group_8110" data-name="Group 8110">
        <path id="Path_10475" data-name="Path 10475" d="M2250.934,1721.05c6.492,0,11.03,5.091,10.174,11.415l-8.312,61.415a13.639,13.639,0,0,1-13.263,11.414h-58.907c-6.492,0-11.029-5.091-10.173-11.414l.126-4.659h21.853l8.185-56.757a13.639,13.639,0,0,1,13.263-11.415Z" transform="translate(-2169.385 -1720.083)" fill="#fff"/>
        <path id="Path_10476" data-name="Path 10476" d="M2438.743,1781.864a11.055,11.055,0,0,1-.056,2.487l-8.312,61.415a13.638,13.638,0,0,1-13.263,11.414h-38.631l8.452-62.446a15.379,15.379,0,0,1,14.955-12.87Z" transform="translate(-2346.964 -1771.97)" fill="#fff"/>
        <path id="Path_10477" data-name="Path 10477" d="M2245.334,1714.466a10.893,10.893,0,0,1,11.132,12.511l-8.313,61.415a14.555,14.555,0,0,1-14.221,12.251h-58.907a10.892,10.892,0,0,1-11.131-12.511l.127-.938a.967.967,0,1,1,1.915.26l-.127.938c-.786,5.805,3.229,10.317,9.215,10.317h58.907a12.723,12.723,0,0,0,12.305-10.577l8.312-61.415c.786-5.8-3.229-10.318-9.215-10.318h-13.717a.967.967,0,1,1,0-1.932Z" transform="translate(-2163.784 -1714.465)" fill="#d6d6d6"/>
      </g>
      <path id="Path_10480" data-name="Path 10480" d="M2397.229,2179.389a.967.967,0,1,0,0,1.934h37.406a.967.967,0,0,0,0-1.934Z" transform="translate(-2362.134 -2111.139)" fill="#c4c5be"/>
    </g>
    <g id="Group_8121" data-name="Group 8121" transform="translate(789.283 345.575)">
      <g id="Group_8119" data-name="Group 8119">
        <rect id="Rectangle_17687" data-name="Rectangle 17687" width="245.405" height="6.113" transform="translate(15.714 117.828)" fill="#fff"/>
        <g id="Group_8118" data-name="Group 8118">
          <path id="Path_10478" data-name="Path 10478" d="M2051.617,2062.115c-1.5,16.114-9.317,18.146-15.617,18.146h-38.983l-18.754,52.645H1959.9l14.77-19.679,5.347-38.951c1.808-13.134,10.375-12.189,14.85-12.189h46.518Z" transform="translate(-1857.439 -1938.859)" fill="#f4f4f4"/>
          <path id="Path_10479" data-name="Path 10479" d="M2286.674,2062.2l-8.37,18.146h-17.5l7.18,52.645h-20.073l8.073-14.338-12.609-41.283c1.809-13.134,10.375-15.2,14.85-15.2h18.215Z" transform="translate(-2099.301 -1938.946)" fill="#f4f4f4"/>
          <g id="Group_8117" data-name="Group 8117">
            <path id="Path_10496" data-name="Path 10496" d="M2326.793,1341.5s26.821,2.328,27,3.4,5.437,52.316,5.437,52.316l-6.689,1.572s-23.958,1.681-27.043,0h-7.477l-4.667-4.848s1.788-41.182,1.967-42.256S2326.793,1341.5,2326.793,1341.5Z" transform="translate(-2159.006 -1324.064)" fill="#d6d6d6"/>
            <path id="Path_10500" data-name="Path 10500" d="M2256.158,1573.706h0c0,8.391-12.7,8.319-15.019.7l-7.862,8.033s-4.094,4.552-6.041,6.917c-3.331,3.955-7.305,17.895-6.958,29.3l-8.279,8.992h67.195C2283.02,1604.663,2273.022,1584.58,2256.158,1573.706Z" transform="translate(-2072.531 -1522.185)" fill="#ffeea4"/>
            <g id="Group_8116" data-name="Group 8116">
              <path id="Path_10481" data-name="Path 10481" d="M2633.8,2290.885a.967.967,0,0,0-.951,1.231l9.821,35.6a.967.967,0,1,0,1.867-.5l-9.821-35.6A.966.966,0,0,0,2633.8,2290.885Z" transform="translate(-2431.567 -2134.082)" fill="#c4c5be"/>
              <path id="Path_10482" data-name="Path 10482" d="M2438.934,2290.885a.966.966,0,0,0-.951,1.231l9.822,35.6a.967.967,0,1,0,1.865-.5l-9.82-35.6A.966.966,0,0,0,2438.934,2290.885Z" transform="translate(-2265.308 -2134.082)" fill="#c4c5be"/>
              <path id="Path_10483" data-name="Path 10483" d="M2440.8,2290.88a.967.967,0,0,0-.983.727l-9.82,35.6a.967.967,0,1,0,1.865.5l9.821-35.6A.965.965,0,0,0,2440.8,2290.88Z" transform="translate(-2258.483 -2134.078)" fill="#c4c5be"/>
              <path id="Path_10484" data-name="Path 10484" d="M2185.336,2290.879a.967.967,0,0,0-.985.728l-9.82,35.6a.967.967,0,1,0,1.867.5l9.82-35.6A.967.967,0,0,0,2185.336,2290.879Z" transform="translate(-2040.528 -2134.077)" fill="#c4c5be"/>
              <path id="Path_10485" data-name="Path 10485" d="M2954.706,2056.863a.966.966,0,0,0-.95,1.231l19.047,70.035a.967.967,0,1,0,1.867-.5l-19.047-70.035A.967.967,0,0,0,2954.706,2056.863Z" transform="translate(-2705.366 -1934.415)" fill="#c4c5be"/>
              <path id="Path_10486" data-name="Path 10486" d="M2810.151,2056.863a.967.967,0,0,0-.953,1.231l19.048,70.035a.967.967,0,1,0,1.867-.5l-19.047-70.035A.967.967,0,0,0,2810.151,2056.863Z" transform="translate(-2582.03 -1934.415)" fill="#c4c5be"/>
              <path id="Path_10487" data-name="Path 10487" d="M1281.914,2056.867a.966.966,0,0,0-.886.728l-19.048,70.392a.967.967,0,1,0,1.867.5l19.048-70.392A.967.967,0,0,0,1281.914,2056.867Z" transform="translate(-1261.933 -1934.417)" fill="#c4c5be"/>
              <path id="Path_10488" data-name="Path 10488" d="M1426.462,2056.867a.965.965,0,0,0-.887.728l-19.048,70.392a.967.967,0,1,0,1.867.5l19.048-70.392A.967.967,0,0,0,1426.462,2056.867Z" transform="translate(-1385.261 -1934.417)" fill="#c4c5be"/>
              <path id="Path_10489" data-name="Path 10489" d="M1622.288,1610.133a4.7,4.7,0,0,0-4.359,3.43l-9.756,41.741c-.46,1.9.195,3.43,2.15,3.43h37v-1.358a5.253,5.253,0,0,0-5.265-5.265h-11.107l8.982-38.547a2.642,2.642,0,0,0-2.7-3.43Z" transform="translate(-1557.225 -1553.264)" fill="#f4f4f4"/>
              <path id="Path_10497" data-name="Path 10497" d="M2452.54,1242.53v-13.9s-1.731-4.9-9.366-5.657l-7.635-.123.385,7.328,1.888,7.175s2.191-.076,2.568,0S2452.54,1242.53,2452.54,1242.53Z" transform="translate(-2263.254 -1222.837)" fill="#dcf2b1"/>
              <path id="Path_10498" data-name="Path 10498" d="M2344.659,1264.929a13.781,13.781,0,0,1,13.783,13.84v6.165h3.988c5.894,0,1.232,10.063-2.352,10.173h-1.84c-.313,1.4.047,5.745-.865,6.982l-.39,8.169,1.655,9.967-16.358-4.427-.316-4.838,1.689-4.618c-.725.1-1.757.407-2.938.649,0,0-8.823-5.512-8.823-11.933-3.155-.976-1.005-6.3-1.019-10.125v-6.165A13.781,13.781,0,0,1,2344.659,1264.929Z" transform="translate(-2173.355 -1258.736)" fill="#fff"/>
              <path id="Path_10499" data-name="Path 10499" d="M2133.145,1735.842l-9.064,15.862-20.576,5.056.854,9.228h42.147Z" transform="translate(-1979.963 -1660.519)" fill="#ffeea4"/>
              <path id="Path_10501" data-name="Path 10501" d="M2321.532,1222.758c11.068,2.013,23.1,8.038,22.531,21.524a6.82,6.82,0,0,1-1.942,3.7l1.265,2.42-.9,13.388-3.347-1.873,1.579,12.462,3.071,9.275s-3.518-.192-9.978-.64c-5.106,0-4.842-11.622-4.842-11.622v-18.115a2.106,2.106,0,0,1,0-.342s-7.667-.4-11.517-3.716c-1.823-1.568-1.451-3.5-2.059-6.2-1.034-3.536-8.609-2.745-8.609,3l.447,5.853.558,7.2-1.577,7.255-1.635,6.7-.686-22.974c-.027-.082-.053-.168-.077-.255-3.949-13.757-1.595-16.191,5.852-19.115C2312.073,1229.709,2314.131,1222.351,2321.532,1222.758Z" transform="translate(-2149.248 -1222.742)" fill="#d6d6d6"/>
              <path id="Path_10503" data-name="Path 10503" d="M1610.974,1941.2a3.152,3.152,0,0,1,3.407,2.83v9.529H1368.976v-9.529a3.152,3.152,0,0,1,3.407-2.83Z" transform="translate(-1353.262 -1835.732)" fill="#d6d6d6"/>
              <path id="Path_10505" data-name="Path 10505" d="M2183.406,1894.043a10.789,10.789,0,0,1,5.042,1.612l.752,5.311h-13.406a7.768,7.768,0,0,1,7.356-6.922Z" transform="translate(-2041.641 -1795.497)" fill="#c4c5be"/>
              <path id="Path_10506" data-name="Path 10506" d="M2247.167,1872.571a15.711,15.711,0,0,1,7.337,2.347l1.095,7.728h-19.51c.74-5.085,4.459-9.737,10.7-10.073Z" transform="translate(-2093.085 -1777.177)" fill="#fff"/>
              <path id="Path_10510" data-name="Path 10510" d="M1616.632,1603.474a.962.962,0,0,0-.351.062,5.5,5.5,0,0,0-4.8,3.774.96.96,0,0,0-.148.339l-1.038,4.445-8.718,37.3v-.01a4.255,4.255,0,0,0,.267,3.132,3.179,3.179,0,0,0,2.822,1.493h37a.967.967,0,0,0,.967-.968v-1.357a6.239,6.239,0,0,0-6.231-6.232h-9.889l1.935-8.311a.967.967,0,1,0-1.883-.44l-2.176,9.344a.968.968,0,0,0,.08.9.94.94,0,0,0,.056.078c.013.017.026.033.041.049a.966.966,0,0,0,.873.315h10.96a4.267,4.267,0,0,1,4.3,4.3v.391h-36.031c-.725,0-.957-.19-1.139-.511a2.521,2.521,0,0,1-.072-1.724v-.01l8.717-37.3,1.034-4.428v-.01a3.854,3.854,0,0,1,3.42-2.691h14.945a1.684,1.684,0,0,1,1.759,2.236v.01l-.011.017-1.033,4.432-1.627,6.982a.967.967,0,1,0,1.883.44l1.627-6.983,1.033-4.432v-.012h0v-.011a.966.966,0,0,0,.013-.408,3.369,3.369,0,0,0-3.239-4.121.965.965,0,0,0-.413-.088Z" transform="translate(-1551.57 -1547.572)" fill="#c4c5be"/>
              <path id="Path_10511" data-name="Path 10511" d="M2463.217,1390.122a7.976,7.976,0,0,0,2.315,5.623,7.953,7.953,0,1,0,0-11.247A7.976,7.976,0,0,0,2463.217,1390.122Z" transform="translate(-2286.87 -1358.765)" fill="#dcf2b1"/>
              <path id="Path_10512" data-name="Path 10512" d="M2489.522,1224.557v28.787a2.826,2.826,0,0,0,2.823,2.841h3.341a2.825,2.825,0,0,0,2.822-2.841v-23.1c-.01-.011-.267-.326-.757-.824-.249-.253-.555-.551-.912-.872s-.767-.667-1.222-1.017-.955-.7-1.5-1.044a16.436,16.436,0,0,0-1.738-.954c-.308-.145-.625-.282-.949-.407s-.658-.239-1-.339C2490.139,1224.7,2489.832,1224.622,2489.522,1224.557Z" transform="translate(-2309.313 -1224.291)" fill="#dcf2b1"/>
              <path id="Path_10513" data-name="Path 10513" d="M1504.076,1314.311a5.766,5.766,0,0,0-5.779,5.779v64.358a5.766,5.766,0,0,0,5.779,5.779h80.119a5.767,5.767,0,0,0,5.779-5.779V1320.09a5.767,5.767,0,0,0-5.779-5.779Z" transform="translate(-1463.599 -1300.869)" fill="#f4f4f4"/>
              <path id="Path_10515" data-name="Path 10515" d="M1498.455,1307.725a6.753,6.753,0,0,0-6.746,6.746v56.592a.967.967,0,1,0,1.934,0v-56.592a4.78,4.78,0,0,1,4.812-4.812.967.967,0,1,0,0-1.934Z" transform="translate(-1457.978 -1295.249)" fill="#c4c5be"/>
            </g>
          </g>
        </g>
      </g>
      <path id="Path_10514" data-name="Path 10514" d="M1492.66,1732.505a.967.967,0,0,0-.952.981v7.765a6.752,6.752,0,0,0,6.746,6.745.967.967,0,1,0,0-1.932,4.781,4.781,0,0,1-4.812-4.813v-7.765a.968.968,0,0,0-.982-.981Z" transform="translate(-1457.977 -1657.672)" fill="#c4c5be"/>
    </g>
  </g>
</svg>
