<svg xmlns="http://www.w3.org/2000/svg" xmlns:xlink="http://www.w3.org/1999/xlink" width="45" height="45" viewBox="0 0 45 45">
  <defs>
    <filter id="Rectangle_17404" x="0" y="0" width="45" height="45" filterUnits="userSpaceOnUse">
      <feOffset dx="2" input="SourceAlpha"/>
      <feGaussianBlur stdDeviation="1.5" result="blur"/>
      <feFlood flood-color="#354517"/>
      <feComposite operator="in" in2="blur"/>
      <feComposite in="SourceGraphic"/>
    </filter>
  </defs>
  <g id="Group_8310" data-name="Group 8310" transform="translate(-1293.5 -70.5)">
    <g id="Group_7713" data-name="Group 7713" transform="translate(596 17)">
      <g transform="matrix(1, 0, 0, 1, 697.5, 53.5)" filter="url(#Rectangle_17404)">
        <g id="Rectangle_17404-2" data-name="Rectangle 17404" transform="translate(2.5 4.5)" fill="#fff" stroke="#dbcfb8" stroke-width="1">
          <rect width="36" height="36" rx="3" stroke="none"/>
          <rect x="0.5" y="0.5" width="35" height="35" rx="2.5" fill="none"/>
        </g>
      </g>
    </g>
    <path id="add" d="M16.748,7.576H9.172V0h-1.6V7.576H0v1.6H7.576v7.576h1.6V9.172h7.576Z" transform="translate(1306 85)" fill="#805537"/>
  </g>
</svg>
