<svg xmlns="http://www.w3.org/2000/svg" width="19.727" height="25" viewBox="0 0 19.727 25">
  <g id="Event_detail_active" transform="translate(-6522 1014)">
    <g id="Group_10026" data-name="Group 10026" transform="translate(6522 -1014)">
      <path id="Path_10857" data-name="Path 10857" d="M19.238,12.6a.488.488,0,0,0,.488-.488V4.395a2.444,2.444,0,0,0-2.441-2.441h-3.31a1.329,1.329,0,0,0-1.048-.513h-.794A2.447,2.447,0,0,0,9.906,0H9.82A2.447,2.447,0,0,0,7.593,1.44H6.8a1.329,1.329,0,0,0-1.048.513H2.441A2.444,2.444,0,0,0,0,4.395V22.559A2.444,2.444,0,0,0,2.441,25H17.285a2.444,2.444,0,0,0,2.441-2.441V16.208a.488.488,0,0,0-.977,0v6.351a1.467,1.467,0,0,1-1.465,1.465H2.441A1.467,1.467,0,0,1,.977,22.559V4.395A1.467,1.467,0,0,1,2.441,2.93H5.469v.977H2.93a.978.978,0,0,0-.977.977V22.07a.978.978,0,0,0,.977.977H16.8a.978.978,0,0,0,.977-.977V4.883a.978.978,0,0,0-.977-.977H14.258V2.93h3.027A1.467,1.467,0,0,1,18.75,4.395v7.72A.488.488,0,0,0,19.238,12.6ZM6.445,2.771A.354.354,0,0,1,6.8,2.417H7.936a.488.488,0,0,0,.471-.36A1.468,1.468,0,0,1,9.82.977h.085a1.468,1.468,0,0,1,1.414,1.08.488.488,0,0,0,.471.36h1.136a.354.354,0,0,1,.354.354V3.906H6.445ZM16.8,4.883V22.07H2.93V4.883H16.8Z" fill="#fff"/>
    </g>
    <g id="Group_10052" data-name="Group 10052" transform="translate(6540.75 -1000.284)">
      <path id="Path_10858" data-name="Path 10858" d="M384.833,281.043a.488.488,0,1,0,.143.345A.492.492,0,0,0,384.833,281.043Z" transform="translate(-384 -280.9)" fill="#fff"/>
    </g>
    <g id="Group_10040" data-name="Group 10040" transform="translate(6531.717 -1005.406)">
      <path id="Path_10859" data-name="Path 10859" d="M199.833,176.143a.488.488,0,1,0,.143.345A.492.492,0,0,0,199.833,176.143Z" transform="translate(-199 -176)" fill="#fff"/>
    </g>
    <g id="Group_10051" data-name="Group 10051" transform="translate(6533.865 -1005.406)">
      <path id="Path_10860" data-name="Path 10860" d="M246.393,176h-2.9a.488.488,0,0,0,0,.977h2.9a.488.488,0,0,0,0-.977Z" transform="translate(-243 -176)" fill="#fff"/>
    </g>
    <g id="Group_10041" data-name="Group 10041" transform="translate(6531.717 -1000.133)">
      <path id="Path_10861" data-name="Path 10861" d="M204.541,284h-5.053a.488.488,0,0,0,0,.977h5.053a.488.488,0,0,0,0-.977Z" transform="translate(-199 -284)" fill="#fff"/>
    </g>
    <g id="Group_10042" data-name="Group 10042" transform="translate(6531.717 -994.859)">
      <path id="Path_10862" data-name="Path 10862" d="M204.541,392h-5.053a.488.488,0,1,0,0,.977h5.053a.488.488,0,1,0,0-.977Z" transform="translate(-199 -392)" fill="#fff"/>
    </g>
    <g id="Group_10027" data-name="Group 10027" transform="translate(6526.297 -1007.75)">
      <path id="Path_10863" data-name="Path 10863" d="M90.832,130.344H88.977v-1.855a.488.488,0,0,0-.977,0v2.344a.488.488,0,0,0,.488.488h2.344a.488.488,0,0,0,0-.977Z" transform="translate(-88 -128)" fill="#fff"/>
    </g>
    <g id="Group_10032" data-name="Group 10032" transform="translate(6527.901 -1007.907)">
      <path id="Path_10864" data-name="Path 10864" d="M123.119,124.928a.489.489,0,0,0-.69,0l-.673.673-.057-.057a.488.488,0,0,0-.69.69l.4.4a.488.488,0,0,0,.69,0l1.019-1.019A.488.488,0,0,0,123.119,124.928Z" transform="translate(-120.865 -124.785)" fill="#fff"/>
    </g>
    <g id="Group_10028" data-name="Group 10028" transform="translate(6526.297 -1002.491)">
      <path id="Path_10865" data-name="Path 10865" d="M90.832,238.054H88.977V236.2a.488.488,0,0,0-.977,0v2.344a.488.488,0,0,0,.488.488h2.344a.488.488,0,1,0,0-.977Z" transform="translate(-88 -235.71)" fill="#fff"/>
    </g>
    <g id="Group_10033" data-name="Group 10033" transform="translate(6527.901 -1002.648)">
      <path id="Path_10866" data-name="Path 10866" d="M123.109,232.638a.489.489,0,0,0-.69,0l-.673.673-.057-.057a.488.488,0,0,0-.69.69l.4.4a.488.488,0,0,0,.69,0l1.019-1.019A.488.488,0,0,0,123.109,232.638Z" transform="translate(-120.855 -232.495)" fill="#fff"/>
    </g>
    <g id="Group_10029" data-name="Group 10029" transform="translate(6526.297 -997.203)">
      <path id="Path_10867" data-name="Path 10867" d="M90.832,346.344H88.977v-1.855a.488.488,0,0,0-.977,0v2.344a.488.488,0,0,0,.488.488h2.344a.488.488,0,0,0,0-.977Z" transform="translate(-88 -344)" fill="#fff"/>
    </g>
    <g id="Group_10034" data-name="Group 10034" transform="translate(6527.901 -997.36)">
      <path id="Path_10868" data-name="Path 10868" d="M123.119,340.928a.489.489,0,0,0-.69,0l-.673.673-.057-.057a.488.488,0,0,0-.69.69l.4.4a.488.488,0,0,0,.69,0l1.019-1.019A.488.488,0,0,0,123.119,340.928Z" transform="translate(-120.865 -340.785)" fill="#fff"/>
    </g>
  </g>
</svg>
