<svg xmlns="http://www.w3.org/2000/svg" xmlns:xlink="http://www.w3.org/1999/xlink" width="1400" height="67" viewBox="0 0 1400 67">
  <defs>
    <linearGradient id="linear-gradient" x1="0.5" x2="0.5" y2="1.794" gradientUnits="objectBoundingBox">
      <stop offset="0" stop-color="#618d1a"/>
      <stop offset="1" stop-color="#495423"/>
    </linearGradient>
    <filter id="Rectangle_1" x="-12" y="-12" width="1430" height="97" filterUnits="userSpaceOnUse">
      <feOffset dx="3" dy="3" input="SourceAlpha"/>
      <feGaussianBlur stdDeviation="5" result="blur"/>
      <feFlood flood-color="#714100" flood-opacity="0.129"/>
      <feComposite operator="in" in2="blur"/>
      <feComposite in="SourceGraphic"/>
    </filter>
    <clipPath id="clip-iPhone_X_XS_1">
      <rect width="1400" height="67"/>
    </clipPath>
  </defs>
  <g id="iPhone_X_XS_1" data-name="iPhone X/XS – 1" clip-path="url(#clip-iPhone_X_XS_1)">
    <rect width="1400" height="67" fill="#fff"/>
    <g id="Group_2" data-name="Group 2" transform="translate(118 -397)">
      <g transform="matrix(1, 0, 0, 1, -118, 397)" filter="url(#Rectangle_1)">
        <rect id="Rectangle_1-2" data-name="Rectangle 1" width="1400" height="67" fill="url(#linear-gradient)"/>
      </g>
      <path id="Intersection_1" data-name="Intersection 1" d="M19609.383,17402.3l-67-67h171.447l67,67Zm-162.145,0a60.619,60.619,0,0,1,102.842-34.074l34.074,34.074Zm-314.285,0,77.076-67h208.826l-77.074,67Zm-590.359,0a3,3,0,0,1-3-3v-61a2.994,2.994,0,0,1,3-3h119.982l-82.742,67Z" transform="translate(-18657.596 -16938.295)" fill="#fff" stroke="rgba(0,0,0,0)" stroke-width="1" opacity="0.088"/>
    </g>
  </g>
</svg>
