<svg xmlns="http://www.w3.org/2000/svg" width="12" height="19.222" viewBox="0 0 12 19.222">
  <path id="Path_10914" data-name="Path 10914" d="M10.775,7.445h-.4V4.377a4.377,4.377,0,0,0-8.755,0V7.445h-.4A1.227,1.227,0,0,0,0,8.67v9.988a.563.563,0,0,0,.563.563H11.437A.563.563,0,0,0,12,18.658V8.67A1.227,1.227,0,0,0,10.775,7.445ZM1.126,8.67a.1.1,0,0,1,.1-.1h9.549a.1.1,0,0,1,.1.1V18.1H1.126ZM2.749,4.377a3.251,3.251,0,0,1,6.5,0V7.445h-6.5Z" fill="#815739"/>
</svg>
