<svg xmlns="http://www.w3.org/2000/svg" width="25" height="26.015" viewBox="0 0 25 26.015">
  <g id="opportunity" transform="translate(110 -13043)">
    <path id="Path_10284" data-name="Path 10284" d="M42.2,33.678l-1.272-1.272a1.366,1.366,0,0,0-1.885,0l-6.871,6.871-.947,3.473L31,42.982a.446.446,0,0,0,0,.627l0,.009.008,0a.445.445,0,0,0,.628,0l.232-.232,3.472-.947L42.2,35.563A1.334,1.334,0,0,0,42.2,33.678Zm-9,5.83,4.573-4.573,1.894,1.894L35.1,41.4Zm-.4.86,1.438,1.438-1.977.539Zm8.768-5.437L40.305,36.2,38.411,34.3l1.267-1.267a.45.45,0,0,1,.622,0l1.272,1.272A.44.44,0,0,1,41.572,34.932Z" transform="translate(-127.593 13025.271)" fill="#484848"/>
    <path id="Path_10285" data-name="Path 10285" d="M7.581,34.893H19.189a.446.446,0,1,0,0-.893H7.581a.446.446,0,1,0,0,.893Z" transform="translate(-114.456 13023.104)" fill="#484848"/>
    <path id="Path_10288" data-name="Path 10288" d="M13.385,46.893a.446.446,0,1,0,0-.893h-5.8a.446.446,0,1,0,0,.893Z" transform="translate(-114.456 13015.386)"/>
    <path id="Path_10289" data-name="Path 10289" d="M20.528,22H7.581a.446.446,0,1,0,0,.893H20.528a.446.446,0,1,0,0-.893Z" transform="translate(-114.456 13030.821)" fill="#484848"/>
    <path id="Path_10293" data-name="Path 10293" d="M12.3,25H2.028V3.571H5.153v.893a.446.446,0,0,0,.446.446H15.867a.446.446,0,0,0,.446-.446V3.571h3.125v9.822a.446.446,0,0,0,.893,0V3.125a.446.446,0,0,0-.446-.446H16.314V1.786a.446.446,0,0,0-.446-.446H13.189V.446A.446.446,0,0,0,12.742,0H8.724a.446.446,0,0,0-.446.446v.893H5.6a.446.446,0,0,0-.446.446v.893H1.581a.446.446,0,0,0-.446.446V25.447a.446.446,0,0,0,.446.446H12.3a.446.446,0,1,0,0-.893ZM9.171.893H12.3V2.679H9.171V.893ZM6.046,2.232H8.278v.893a.446.446,0,0,0,.446.446h4.018a.446.446,0,0,0,.446-.446V2.232h2.232V4.018H6.046V2.232Z" transform="translate(-111.135 13043)" fill="#484848"/>
  </g>
</svg>
