<svg xmlns="http://www.w3.org/2000/svg" width="18.952" height="25" viewBox="0 0 18.952 25">
  <g id="Profile_grey" transform="translate(5386 547)">
    <path id="Path_10955" data-name="Path 10955" d="M73.04,36.037H71.488a.4.4,0,0,1-.4-.4V33.92h-.746v1.714a.4.4,0,0,1-.4.4H68.4a.4.4,0,0,1-.4-.4v-3.1a.394.394,0,0,1,.141-.3l2.339-1.935a.424.424,0,0,1,.524,0l2.319,1.915a.363.363,0,0,1,.141.3v3.1A.439.439,0,0,1,73.04,36.037Zm-1.129-.806h.726V32.71l-1.915-1.593L68.806,32.71v2.5h.746V33.517a.4.4,0,0,1,.4-.4h1.552a.4.4,0,0,1,.4.4Z" transform="translate(-5450.573 -575.678)" fill="#484848"/>
    <path id="Path_10956" data-name="Path 10956" d="M16.815,25H2.137A2.16,2.16,0,0,1,0,22.823V2.177A2.16,2.16,0,0,1,2.137,0H13.569l5.383,5.04V22.823A2.16,2.16,0,0,1,16.815,25ZM2.137.806A1.364,1.364,0,0,0,.806,2.177V22.823a1.351,1.351,0,0,0,1.331,1.371H16.815a1.364,1.364,0,0,0,1.331-1.371V5.383L13.246.806Z" transform="translate(-5386 -547)" fill="#484848"/>
    <path id="Path_10957" data-name="Path 10957" d="M263.544,5.742h-4.073A1.484,1.484,0,0,1,258,4.25V.541a.4.4,0,0,1,.242-.363.406.406,0,0,1,.444.081l5.121,4.8a.406.406,0,0,1,.1.444A.4.4,0,0,1,263.544,5.742Zm-4.738-4.274V4.25a.676.676,0,0,0,.665.685h3.044Z" transform="translate(-5630.996 -547.137)" fill="#484848"/>
    <path id="Path_10958" data-name="Path 10958" d="M80.685,300.406H70.4a.4.4,0,0,1,0-.806h10.3a.4.4,0,0,1,.4.4A.422.422,0,0,1,80.685,300.406Z" transform="translate(-5452.472 -831.499)" fill="#484848"/>
    <path id="Path_10959" data-name="Path 10959" d="M81.492,362.406H70.4a.4.4,0,0,1,0-.806H81.492a.4.4,0,0,1,0,.806Z" transform="translate(-5452.472 -890.374)" fill="#484848"/>
    <path id="Path_10960" data-name="Path 10960" d="M176.866,420.006H174a.4.4,0,0,1,0-.806h2.863a.4.4,0,1,1,0,.806Z" transform="translate(-5550.85 -945.071)" fill="#484848"/>
    <path id="Path_10961" data-name="Path 10961" d="M73.669,420.006H70.4a.4.4,0,0,1,0-.806h3.266a.4.4,0,0,1,0,.806Z" transform="translate(-5452.472 -945.071)" fill="#484848"/>
    <path id="Path_10962" data-name="Path 10962" d="M81.492,242.806H70.4a.4.4,0,0,1,0-.806H81.492a.4.4,0,0,1,.4.4A.392.392,0,0,1,81.492,242.806Z" transform="translate(-5452.472 -776.802)" fill="#484848"/>
    <path id="Path_10963" data-name="Path 10963" d="M77.137,185.606H70.4a.4.4,0,0,1,0-.806h6.734a.4.4,0,1,1,0,.806Z" transform="translate(-5452.472 -722.485)" fill="#484848"/>
  </g>
</svg>
