<svg xmlns="http://www.w3.org/2000/svg" width="21" height="17.613" viewBox="0 0 21 17.613">
  <g id="Group_9044" data-name="Group 9044" transform="translate(-1080 -87)">
    <path id="Path_10761" data-name="Path 10761" d="M128.677,65.613H149V64.258h-3.387V55.452a.677.677,0,0,0-.677-.677h-2.71a.677.677,0,0,0-.677.677v8.806h-1.355v-6.1a.677.677,0,0,0-.677-.677h-2.71a.677.677,0,0,0-.677.677v6.1h-1.355V60.871a.677.677,0,0,0-.677-.677h-2.71a.677.677,0,0,0-.677.677v3.387h-1.355V48H128V64.935A.677.677,0,0,0,128.677,65.613ZM142.9,56.129h1.355v8.129H142.9Zm-5.419,2.71h1.355v5.419h-1.355Zm-5.419,2.71h1.355v2.71h-1.355Z" transform="translate(952 39)" fill="#815739"/>
    <path id="Path_10762" data-name="Path 10762" d="M180.515,71.452h3.048a.677.677,0,0,0,.542-.271l1.829-2.439h3.048a.677.677,0,0,0,.479-.2l2.231-2.231v1.074h1.355v-2.71A.677.677,0,0,0,192.37,64h-2.71v1.355h1.074L188.7,67.387H185.6a.677.677,0,0,0-.542.271L183.224,70.1h-3.048a.677.677,0,0,0-.542.271l-2.032,2.71,1.084.813Z" transform="translate(906.598 24.355)" fill="#815739"/>
  </g>
</svg>
