<svg xmlns="http://www.w3.org/2000/svg" width="10.4" height="8" viewBox="0 0 10.4 8">
  <path id="checked" d="M.12,7.4a.387.387,0,0,1,0-.56l.56-.56a.387.387,0,0,1,.56,0l.04.04,2.2,2.36a.193.193,0,0,0,.28,0L9.12,3.12h.04a.387.387,0,0,1,.56,0l.56.56a.387.387,0,0,1,0,.56h0l-6.4,6.64a.387.387,0,0,1-.56,0L.2,7.52.12,7.4Z" transform="translate(0 -3)" fill="#2f72f2"/>
</svg>
