<svg xmlns="http://www.w3.org/2000/svg" width="11.229" height="12.77" viewBox="0 0 11.229 12.77">
  <g id="Group_7008" data-name="Group 7008" transform="translate(-97.207 -143)">
    <g id="Group_7007" data-name="Group 7007">
      <path id="Path_477" data-name="Path 477" d="M29.476,11.214a.574.574,0,0,0,.572-.572V.575a.569.569,0,0,0-.915-.458L25.4,2.92a.572.572,0,0,0,.686.915L28.9,1.719v8.924A.574.574,0,0,0,29.476,11.214Z" transform="translate(72.041 143)" fill="#646464"/>
      <path id="Path_478" data-name="Path 478" d="M247.361,86.771a.574.574,0,0,0-.572.572v9.972a.587.587,0,0,0,.315.515.629.629,0,0,0,.257.057.571.571,0,0,0,.343-.114l3.737-2.755a.573.573,0,0,0-.677-.925l-2.831,2.088V87.343A.574.574,0,0,0,247.361,86.771Z" transform="translate(-143.239 57.882)" fill="#646464" opacity="0.4"/>
    </g>
  </g>
</svg>
