<svg xmlns="http://www.w3.org/2000/svg" width="20" height="20" viewBox="0 0 20 20">
  <g id="Group_10059" data-name="Group 10059" transform="translate(-4078 -2258)">
    <path id="Path_10839" data-name="Path 10839" d="M7.811,14.059h2.655v1.562H7.811V14.059Zm-2.929-.2a.976.976,0,1,0,.976.976A.976.976,0,0,0,4.881,13.863ZM15.7,9.1H7.811v1.562H15.7ZM4.881,8.9a.976.976,0,1,0,.976.976A.976.976,0,0,0,4.881,8.9ZM15.7,4.413H7.811V5.975H15.7Zm-10.818-.2a.976.976,0,1,0,.976.976A.976.976,0,0,0,4.881,4.218ZM1.562,17.652V2.343a.782.782,0,0,1,.781-.781H17.652a.782.782,0,0,1,.781.781v8.826h1.562V2.343A2.346,2.346,0,0,0,17.652,0H2.343A2.346,2.346,0,0,0,0,2.343V17.651a2.346,2.346,0,0,0,2.343,2.343h9.021V18.432H2.343A.781.781,0,0,1,1.562,17.652ZM18.9,20,17.34,18.445a3.518,3.518,0,1,1,1.131-1.078L20,18.9Zm-3.353-2.622a1.953,1.953,0,1,0-1.953-1.952A1.955,1.955,0,0,0,15.543,17.378Z" transform="translate(4078 2258)" fill="#805537"/>
  </g>
</svg>
